// Jest Snapshot v1, https://goo.gl/fbAQLP

exports[`App Component should display the App component using snapshot testing 1`] = `
<DocumentFragment>
  <div
    class="container custom-wrapper-app"
  >
    <div
      class="row w-100"
    >
      <div
        class="col custom-background p-4"
      >
        <div
          class="d-flex justify-content-between align-items-center mb-4"
        >
          <input
            class="input-search"
            placeholder="Search"
            type="text"
            value=""
          />
          <button
            class="btn-search btn-secondary"
            data-testid="search-button-id"
            disabled=""
            type="submit"
          >
            <a
              class="dropdown-item"
              href="#/detail"
            >
              Get Weather
            </a>
          </button>
        </div>
        <div
          class="content-app"
        >
          <div
            class="welcome-content text-center"
          >
            <h1>
              Welcome!
            </h1>
            <p>
              Please input your location to get Weather Forecast
            </p>
          </div>
        </div>
      </div>
    </div>
  </div>
</DocumentFragment>
`;
