// Jest Snapshot v1, https://goo.gl/fbAQLP

exports[`Loading component should display the loading component using snapshot testing 1`] = `
<DocumentFragment>
  <div
    class="spinner-loading-container spinner-loading-center-block spinner-loading-background"
    data-testid="id-loading-app"
  >
    <div
      class="spinner-border text-primary"
      role="status"
    >
      <span
        class="sr-only"
      >
        Loading...
      </span>
    </div>
  </div>
</DocumentFragment>
`;
